// Jest Snapshot v1, https://goo.gl/fbAQLP

exports[`AnimatedLogo renders without crashing 1`] = `
.c0 {
  height: 25vmin;
  pointer-events: none;
  padding-bottom: 3rem;
}

.c0 .Logo__circle {
  fill: var(--palette-primary);
}

.c0 .logo__circle {
  -webkit-animation: App-logo-bounce infinite 5s 1s ease-in-out;
  animation: App-logo-bounce infinite 5s 1s ease-in-out;
}

@media (max-width:450px) {
  .c0 {
    height: 30vmin;
  }
}

<div>
  <svg
    class="sc-AxjAm c0 AnimatedLogo"
  >
    logo.svg
  </svg>
</div>
`;
